Rating,Title,Id
9.2, The Shawshank Redemption (1994),1
9.2, The Godfather (1972),2
9,The Godfather: Part II (1974),3
8.9, The Dark Knight (2008),4
8.9,Schindler's List (1993),5
8.9,12 Angry Men (1957),6
8.9, Pulp Fiction (1994),7
8.9, The Lord of the Rings: The Return of the King (2003),8
8.9,"Il buono, il brutto, il cattivo (1966)",9
8.8, Fight Club (1999),10
8.8, The Lord of the Rings: The Fellowship of the Ring (2001),11
8.7,Star Wars: Episode V - The Empire Strikes Back (1980),12
8.7, Forrest Gump (1994),13
8.7, Inception (2010),14
8.7, The Lord of the Rings: The Two Towers (2002),15
8.7,One Flew Over the Cuckoo's Nest (1975),16
8.7,Goodfellas (1990),17
8.7, The Matrix (1999),18
8.7,Shichinin no samurai (1954),19
8.6,Star Wars (1977),20
8.6,Cidade de Deus (2002),21
8.6,Se7en (1995),22
8.6,The Silence of the Lambs (1991),23
8.6,It's a Wonderful Life (1946),24
8.6,The Usual Suspects (1995),25
8.6,La vita è bella (1997),26
8.6,Léon (1994),27
8.5,C'era una volta il West (1968),28
8.5,Sen to Chihiro no kamikakushi (2001),29
8.5,Saving Private Ryan (1998),30
8.5,American History X (1998),31
8.5,Interstellar (2014),32
8.5,Casablanca (1942),33
8.5,Psycho (1960),34
8.5,City Lights (1931),35
8.5,Raiders of the Lost Ark (1981),36
8.5,Intouchables (2011),37
8.5,Rear Window (1954),38
8.5,Modern Times (1936),39
8.5,The Green Mile (1999),40
8.5,Terminator 2: Judgment Day (1991),41
8.5,The Pianist (2002),42
8.5,The Departed (2006),43
8.5,Back to the Future (1985),44
8.5,Whiplash (2014),45
8.5,Gladiator (2000),46
8.5,Memento (2000),47
8.5,Apocalypse Now (1979),48
8.5,The Prestige (2006),49
8.4,The Lion King (1994),50
8.4,Dr. Strangelove or: How I Learned to Stop Worrying and Love the Bomb (1964),51
8.4,Sunset Blvd. (1950),52
8.4,Alien (1979),53
8.4,The Great Dictator (1940),54
8.4,Das Leben der Anderen (2006),55
8.4,Nuovo Cinema Paradiso (1988),56
8.4,Django Unchained (2012),57
8.4,The Shining (1980),58
8.4,Paths of Glory (1957),59
8.4,Hotaru no haka (1988),60
8.4,WALL·E (2008),61
8.4, The Dark Knight Rises (2012),62
8.4,American Beauty (1999),63
8.4,Aliens (1986),64
8.4,Mononoke-hime (1997),65
8.4,Oldeuboi (2003),66
8.4,Citizen Kane (1941),67
8.4,North by Northwest (1959),68
8.4,Once Upon a Time in America (1984),69
8.4,Das Boot (1981),70
8.3,Vertigo (1958),71
8.3,Star Wars: Episode VI - Return of the Jedi (1983),72
8.3,Witness for the Prosecution (1957),73
8.3,M (1931),74
8.3,Reservoir Dogs (1992),75
8.3,Le fabuleux destin d'Amélie Poulain (2001),76
8.3,Braveheart (1995),77
8.3,Captain America: Civil War (2016),78
8.3,Requiem for a Dream (2000),79
8.3,A Clockwork Orange (1971),80
8.3,Taxi Driver (1976),81
8.3,Double Indemnity (1944),82
8.3,Toy Story 3 (2010),83
8.3,Lawrence of Arabia (1962),84
8.3,To Kill a Mockingbird (1962),85
8.3,Eternal Sunshine of the Spotless Mind (2004),86
8.3,Full Metal Jacket (1987),87
8.3,Amadeus (1984),88
8.3,The Sting (1973),89
8.3,2001: A Space Odyssey (1968),90
8.3,Singin' in the Rain (1952),91
8.3,Ladri di biciclette (1948),92
8.3,Snatch. (2000),93
8.3,Toy Story (1995),94
8.3,Monty Python and the Holy Grail (1975),95
8.3,Inglourious Basterds (2009),96
8.3,The Kid (1921),97
8.3,L.A. Confidential (1997),98
8.3,Per qualche dollaro in più (1965),99
8.3,The Apartment (1960),100
8.3,Rashômon (1950),101
8.3,Indiana Jones and the Last Crusade (1989),102
8.3,Scarface (1983),103
8.3,Jodaeiye Nader az Simin (2011),104
8.3,Metropolis (1927),105
8.3,All About Eve (1950),106
8.2,Yôjinbô (1961),107
8.2,The Treasure of the Sierra Madre (1948),108
8.2,Batman Begins (2005),109
8.2,Jagten (2012),110
8.2,Some Like It Hot (1959),111
8.2,3 Idiots (2009),112
8.2,Unforgiven (1992),113
8.2,Up (2009),114
8.2,Good Will Hunting (1997),115
8.2,The Third Man (1949),116
8.2,Inside Out (2015/I),117
8.2,Raging Bull (1980),118
8.2,Der Untergang (2004),119
8.2,Die Hard (1988),120
8.2,Chinatown (1974),121
8.2,The Great Escape (1963),122
8.2,Heat (1995),123
8.2,Room (2015/I),124
8.2,El laberinto del fauno (2006),125
8.2,On the Waterfront (1954),126
8.2,Star Wars: Episode VII - The Force Awakens (2015),127
8.2,Tonari no Totoro (1988),128
8.2,Ran (1985),129
8.2,Ikiru (1952),130
8.2,Mr. Smith Goes to Washington (1939),131
8.2,The Bridge on the River Kwai (1957),132
8.2,The Gold Rush (1925),133
8.2,El secreto de sus ojos (2009),134
8.2,Sunrise: A Song of Two Humans (1927),135
8.2,Det sjunde inseglet (1957),136
8.2,Blade Runner (1982),137
8.2,"Lock, Stock and Two Smoking Barrels (1998)",138
8.2,The Message (1976),139
8.2,Zootopia (2016),140
8.2,Hauru no ugoku shiro (2004),141
8.2,Smultronstället (1957),142
8.2,The General (1926),143
8.2,Casino (1995),144
8.2,The Elephant Man (1980),145
8.2,Warrior (2011),146
8.2,The Wolf of Wall Street (2013),147
8.2,Judgment at Nuremberg (1961),148
8.1,V for Vendetta (2005),149
8.1,A Beautiful Mind (2001),150
8.1,Gran Torino (2008),151
8.1,The Big Lebowski (1998),152
8.1,Incendies (2010),153
8.1,The Deer Hunter (1978),154
8.1,Rebecca (1940),155
8.1,Fargo (1996),156
8.1,Trainspotting (1996),157
8.1,Gone with the Wind (1939),158
8.1,Cool Hand Luke (1967),159
8.1,Dial M for Murder (1954),160
8.1,How to Train Your Dragon (2010),161
8.1,Deadpool (2016),162
8.1,The Sixth Sense (1999),163
8.1,Finding Nemo (2003),164
8.1,Into the Wild (2007),165
8.1,The Thing (1982),166
8.1,No Country for Old Men (2007),167
8.1,It Happened One Night (1934),168
8.1,Mary and Max (2009),169
8.1,Gone Girl (2014),170
8.1,Kill Bill: Vol. 1 (2003),171
8.1,Rush (2013/I),172
8.1,Life of Brian (1979),173
8.1,Hotel Rwanda (2004),174
8.1,There Will Be Blood (2007),175
8.1,Platoon (1986),176
8.1,The Maltese Falcon (1941),177
8.1,Mad Max: Fury Road (2015),178
8.1,Le salaire de la peur (1953),179
8.1,Spotlight (2015/I),180
8.1,Network (1976),181
8.1,Butch Cassidy and the Sundance Kid (1969),182
8.1,Les quatre cents coups (1959),183
8.1,Stand by Me (1986),184
8.1,Shutter Island (2010),185
8.1,In the Name of the Father (1993),186
8.1,Persona (1966),187
8.1,12 Years a Slave (2013),188
8.1,The Grand Budapest Hotel (2014),189
8.1,Amores perros (2000),190
8.1,The Princess Bride (1987),191
8.1,Million Dollar Baby (2004),192
8.1,The Revenant (2015),193
8.1,Ben-Hur (1959),194
8.1,Touch of Evil (1958),195
8.1,Relatos salvajes (2014),196
8.1,Annie Hall (1977),197
8.1,The Grapes of Wrath (1940),198
8.1,Hachi: A Dog's Tale (2009),199
8.1,Kaze no tani no Naushika (1984),200
8.1,Stalker (1979),201
8.1,Jurassic Park (1993),202
8,Les diaboliques (1955),203
8,Gandhi (1982),204
8,The Bourne Ultimatum (2007),205
8,Before Sunrise (1995),206
8,Donnie Darko (2001),207
8,8½ (1963),208
8,Salinui chueok (2003),209
8,The Truman Show (1998),210
8,Rocky (1976),211
8,The Wizard of Oz (1939),212
8,The Best Years of Our Lives (1946),213
8,The Terminator (1984),214
8,"Monsters, Inc. (2001)",215
8,Twelve Monkeys (1995),216
8,Harry Potter and the Deathly Hallows: Part 2 (2011),217
8,Sin City (2005),218
8,Groundhog Day (1993),219
8,Strangers on a Train (1951),220
8,Mou gaan dou (2002),221
8,Jaws (1975),222
8,La haine (1995),223
8,La battaglia di Algeri (1966),224
8,Barry Lyndon (1975),225
8,Prisoners (2013),226
8,The Martian (2015),227
8,Dog Day Afternoon (1975),228
8,Yip Man (2008),229
8,Fanny och Alexander (1982),230
8,The Imitation Game (2014),231
8,The Avengers (2012),232
8,Pirates of the Caribbean: The Curse of the Black Pearl (2003),233
8,Catch Me If You Can (2002),234
8,The King's Speech (2010),235
8,The Help (2011),236
8,Guardians of the Galaxy (2014),237
8,Per un pugno di dollari (1964),238
8,Tenkû no shiro Rapyuta (1986),239
8,Roman Holiday (1953),240
8,Kumonosu-jô (1957),241
8,High Noon (1952),242
8,Beauty and the Beast (1991),243
8,Faa yeung nin wa (2000),244
8,Who's Afraid of Virginia Woolf? (1966),245
8,La grande illusion (1937),246
8,Before Sunset (2004),247
8,The Man Who Shot Liberty Valance (1962),248
8,Tropa de Elite (2007),249
8,Akira (1988),250
